{"node_id": "9881","batch":"988115472375819442", "sent":100, "total": 100, "start_time":1547237581.944256, "end_time":1547237583.004649,"type":"TX"}
ST Late 34721 (now 0027887B)
ST Late 1975 (now 00278891)
{"to": "9881","from": "A775","rssi": -46, "batch":"A77515472375837408","current_packet": 0, "total": 100, "sent_time": 1547237583.741154, "received_time": 1547237583.748551, "type":"RX"}
{"to": "9881","from": "A775","rssi": -46, "batch":"A77515472375837408","current_packet": 1, "total": 100, "sent_time": 1547237583.751833, "received_time": 1547237583.759262, "type":"RX"}
{"to": "9881","from": "A775","rssi": -46, "batch":"A77515472375837408","current_packet": 2, "total": 100, "sent_time": 1547237583.762544, "received_time": 1547237583.769972, "type":"RX"}
{"to": "9881","from": "A775","rssi": -46, "batch":"A77515472375837408","current_packet": 3, "total": 100, "sent_time": 1547237583.773254, "received_time": 1547237583.780682, "type":"RX"}
{"to": "9881","from": "A775","rssi": -46, "batch":"A77515472375837408","current_packet": 4, "total": 100, "sent_time": 1547237583.783965, "received_time": 1547237583.791393, "type":"RX"}
{"to": "9881","from": "A775","rssi": -46, "batch":"A77515472375837408","current_packet": 5, "total": 100, "sent_time": 1547237583.794675, "received_time": 1547237583.802103, "type":"RX"}
{"to": "9881","from": "A775","rssi": -46, "batch":"A77515472375837408","current_packet": 6, "total": 100, "sent_time": 1547237583.805386, "received_time": 1547237583.812783, "type":"RX"}
{"to": "9881","from": "A775","rssi": -46, "batch":"A77515472375837408","current_packet": 7, "total": 100, "sent_time": 1547237583.816066, "received_time": 1547237583.823494, "type":"RX"}
{"to": "9881","from": "A775","rssi": -46, "batch":"A77515472375837408","current_packet": 8, "total": 100, "sent_time": 1547237583.826776, "received_time": 1547237583.834204, "type":"RX"}
{"to": "9881","from": "A775","rssi": -46, "batch":"A77515472375837408","current_packet": 9, "total": 100, "sent_time": 1547237583.837486, "received_time": 1547237583.844915, "type":"RX"}
{"to": "9881","from": "A775","rssi": -46, "batch":"A77515472375837408","current_packet": 10, "total": 100, "sent_time": 1547237583.848197, "received_time": 1547237583.855655, "type":"RX"}
{"to": "9881","from": "A775","rssi": -46, "batch":"A77515472375837408","current_packet": 11, "total": 100, "sent_time": 1547237583.858907, "received_time": 1547237583.866366, "type":"RX"}
{"to": "9881","from": "A775","rssi": -46, "batch":"A77515472375837408","current_packet": 12, "total": 100, "sent_time": 1547237583.869618, "received_time": 1547237583.877076, "type":"RX"}
{"to": "9881","from": "A775","rssi": -46, "batch":"A77515472375837408","current_packet": 13, "total": 100, "sent_time": 1547237583.880328, "received_time": 1547237583.887787, "type":"RX"}
{"to": "9881","from": "A775","rssi": -45, "batch":"A77515472375837408","current_packet": 14, "total": 100, "sent_time": 1547237583.891038, "received_time": 1547237583.898497, "type":"RX"}
{"to": "9881","from": "A775","rssi": -46, "batch":"A77515472375837408","current_packet": 15, "total": 100, "sent_time": 1547237583.901749, "received_time": 1547237583.909208, "type":"RX"}
{"to": "9881","from": "A775","rssi": -46, "batch":"A77515472375837408","current_packet": 16, "total": 100, "sent_time": 1547237583.912459, "received_time": 1547237583.919918, "type":"RX"}
{"to": "9881","from": "A775","rssi": -46, "batch":"A77515472375837408","current_packet": 17, "total": 100, "sent_time": 1547237583.923139, "received_time": 1547237583.930598, "type":"RX"}
{"to": "9881","from": "A775","rssi": -45, "batch":"A77515472375837408","current_packet": 18, "total": 100, "sent_time": 1547237583.933880, "received_time": 1547237583.941308, "type":"RX"}
{"to": "9881","from": "A775","rssi": -46, "batch":"A77515472375837408","current_packet": 19, "total": 100, "sent_time": 1547237583.944560, "received_time": 1547237583.952019, "type":"RX"}
{"to": "9881","from": "A775","rssi": -46, "batch":"A77515472375837408","current_packet": 20, "total": 100, "sent_time": 1547237583.955271, "received_time": 1547237583.962729, "type":"RX"}
{"to": "9881","from": "A775","rssi": -46, "batch":"A77515472375837408","current_packet": 21, "total": 100, "sent_time": 1547237583.965981, "received_time": 1547237583.973409, "type":"RX"}
{"to": "9881","from": "A775","rssi": -46, "batch":"A77515472375837408","current_packet": 22, "total": 100, "sent_time": 1547237583.976661, "received_time": 1547237583.984120, "type":"RX"}
{"to": "9881","from": "A775","rssi": -46, "batch":"A77515472375837408","current_packet": 23, "total": 100, "sent_time": 1547237583.987371, "received_time": 1547237583.994830, "type":"RX"}
{"to": "9881","from": "A775","rssi": -46, "batch":"A77515472375837408","current_packet": 24, "total": 100, "sent_time": 1547237583.998051, "received_time": 1547237584.005510, "type":"RX"}
{"to": "9881","from": "A775","rssi": -46, "batch":"A77515472375837408","current_packet": 25, "total": 100, "sent_time": 1547237584.008762, "received_time": 1547237584.016220, "type":"RX"}
{"to": "9881","from": "A775","rssi": -46, "batch":"A77515472375837408","current_packet": 26, "total": 100, "sent_time": 1547237584.019472, "received_time": 1547237584.026931, "type":"RX"}
{"to": "9881","from": "A775","rssi": -46, "batch":"A77515472375837408","current_packet": 27, "total": 100, "sent_time": 1547237584.030152, "received_time": 1547237584.037611, "type":"RX"}
{"to": "9881","from": "A775","rssi": -46, "batch":"A77515472375837408","current_packet": 28, "total": 100, "sent_time": 1547237584.040862, "received_time": 1547237584.048321, "type":"RX"}
{"to": "9881","from": "A775","rssi": -46, "batch":"A77515472375837408","current_packet": 29, "total": 100, "sent_time": 1547237584.051573, "received_time": 1547237584.059032, "type":"RX"}
{"to": "9881","from": "A775","rssi": -46, "batch":"A77515472375837408","current_packet": 30, "total": 100, "sent_time": 1547237584.062314, "received_time": 1547237584.069742, "type":"RX"}
{"to": "9881","from": "A775","rssi": -46, "batch":"A77515472375837408","current_packet": 31, "total": 100, "sent_time": 1547237584.072994, "received_time": 1547237584.080452, "type":"RX"}
{"to": "9881","from": "A775","rssi": -46, "batch":"A77515472375837408","current_packet": 32, "total": 100, "sent_time": 1547237584.083704, "received_time": 1547237584.091163, "type":"RX"}
{"to": "9881","from": "A775","rssi": -46, "batch":"A77515472375837408","current_packet": 33, "total": 100, "sent_time": 1547237584.094415, "received_time": 1547237584.101873, "type":"RX"}
{"to": "9881","from": "A775","rssi": -46, "batch":"A77515472375837408","current_packet": 34, "total": 100, "sent_time": 1547237584.105094, "received_time": 1547237584.112553, "type":"RX"}
{"to": "9881","from": "A775","rssi": -46, "batch":"A77515472375837408","current_packet": 35, "total": 100, "sent_time": 1547237584.115805, "received_time": 1547237584.123264, "type":"RX"}
{"to": "9881","from": "A775","rssi": -46, "batch":"A77515472375837408","current_packet": 36, "total": 100, "sent_time": 1547237584.126515, "received_time": 1547237584.133974, "type":"RX"}
{"to": "9881","from": "A775","rssi": -46, "batch":"A77515472375837408","current_packet": 37, "total": 100, "sent_time": 1547237584.137226, "received_time": 1547237584.144684, "type":"RX"}
{"to": "9881","from": "A775","rssi": -46, "batch":"A77515472375837408","current_packet": 38, "total": 100, "sent_time": 1547237584.147967, "received_time": 1547237584.155395, "type":"RX"}
{"to": "9881","from": "A775","rssi": -46, "batch":"A77515472375837408","current_packet": 39, "total": 100, "sent_time": 1547237584.158647, "received_time": 1547237584.166105, "type":"RX"}
{"to": "9881","from": "A775","rssi": -46, "batch":"A77515472375837408","current_packet": 40, "total": 100, "sent_time": 1547237584.169357, "received_time": 1547237584.176816, "type":"RX"}
{"to": "9881","from": "A775","rssi": -46, "batch":"A77515472375837408","current_packet": 41, "total": 100, "sent_time": 1547237584.180037, "received_time": 1547237584.187496, "type":"RX"}
{"to": "9881","from": "A775","rssi": -46, "batch":"A77515472375837408","current_packet": 42, "total": 100, "sent_time": 1547237584.190747, "received_time": 1547237584.198206, "type":"RX"}
{"to": "9881","from": "A775","rssi": -46, "batch":"A77515472375837408","current_packet": 43, "total": 100, "sent_time": 1547237584.201458, "received_time": 1547237584.208917, "type":"RX"}
{"to": "9881","from": "A775","rssi": -46, "batch":"A77515472375837408","current_packet": 44, "total": 100, "sent_time": 1547237584.212138, "received_time": 1547237584.219596, "type":"RX"}
{"to": "9881","from": "A775","rssi": -46, "batch":"A77515472375837408","current_packet": 45, "total": 100, "sent_time": 1547237584.222879, "received_time": 1547237584.230307, "type":"RX"}
{"to": "9881","from": "A775","rssi": -46, "batch":"A77515472375837408","current_packet": 46, "total": 100, "sent_time": 1547237584.233559, "received_time": 1547237584.241017, "type":"RX"}
{"to": "9881","from": "A775","rssi": -46, "batch":"A77515472375837408","current_packet": 47, "total": 100, "sent_time": 1547237584.244269, "received_time": 1547237584.251728, "type":"RX"}
{"to": "9881","from": "A775","rssi": -46, "batch":"A77515472375837408","current_packet": 48, "total": 100, "sent_time": 1547237584.254979, "received_time": 1547237584.262438, "type":"RX"}
{"to": "9881","from": "A775","rssi": -46, "batch":"A77515472375837408","current_packet": 49, "total": 100, "sent_time": 1547237584.265720, "received_time": 1547237584.273149, "type":"RX"}
{"to": "9881","from": "A775","rssi": -45, "batch":"A77515472375837408","current_packet": 50, "total": 100, "sent_time": 1547237584.276400, "received_time": 1547237584.283859, "type":"RX"}
{"to": "9881","from": "A775","rssi": -46, "batch":"A77515472375837408","current_packet": 51, "total": 100, "sent_time": 1547237584.287080, "received_time": 1547237584.294539, "type":"RX"}
{"to": "9881","from": "A775","rssi": -46, "batch":"A77515472375837408","current_packet": 52, "total": 100, "sent_time": 1547237584.297821, "received_time": 1547237584.305249, "type":"RX"}
{"to": "9881","from": "A775","rssi": -46, "batch":"A77515472375837408","current_packet": 53, "total": 100, "sent_time": 1547237584.308501, "received_time": 1547237584.315990, "type":"RX"}
{"to": "9881","from": "A775","rssi": -46, "batch":"A77515472375837408","current_packet": 54, "total": 100, "sent_time": 1547237584.319212, "received_time": 1547237584.326670, "type":"RX"}
{"to": "9881","from": "A775","rssi": -46, "batch":"A77515472375837408","current_packet": 55, "total": 100, "sent_time": 1547237584.329952, "received_time": 1547237584.337381, "type":"RX"}
{"to": "9881","from": "A775","rssi": -46, "batch":"A77515472375837408","current_packet": 56, "total": 100, "sent_time": 1547237584.340663, "received_time": 1547237584.348091, "type":"RX"}
{"to": "9881","from": "A775","rssi": -46, "batch":"A77515472375837408","current_packet": 57, "total": 100, "sent_time": 1547237584.351343, "received_time": 1547237584.358802, "type":"RX"}
{"to": "9881","from": "A775","rssi": -46, "batch":"A77515472375837408","current_packet": 58, "total": 100, "sent_time": 1547237584.362084, "received_time": 1547237584.369512, "type":"RX"}
{"to": "9881","from": "A775","rssi": -46, "batch":"A77515472375837408","current_packet": 59, "total": 100, "sent_time": 1547237584.372764, "received_time": 1547237584.380222, "type":"RX"}
{"to": "9881","from": "A775","rssi": -46, "batch":"A77515472375837408","current_packet": 60, "total": 100, "sent_time": 1547237584.383474, "received_time": 1547237584.390933, "type":"RX"}
{"to": "9881","from": "A775","rssi": -45, "batch":"A77515472375837408","current_packet": 61, "total": 100, "sent_time": 1547237584.394185, "received_time": 1547237584.401613, "type":"RX"}
{"to": "9881","from": "A775","rssi": -46, "batch":"A77515472375837408","current_packet": 62, "total": 100, "sent_time": 1547237584.404895, "received_time": 1547237584.412323, "type":"RX"}
{"to": "9881","from": "A775","rssi": -46, "batch":"A77515472375837408","current_packet": 63, "total": 100, "sent_time": 1547237584.415575, "received_time": 1547237584.423034, "type":"RX"}
{"to": "9881","from": "A775","rssi": -46, "batch":"A77515472375837408","current_packet": 64, "total": 100, "sent_time": 1547237584.426316, "received_time": 1547237584.433744, "type":"RX"}
{"to": "9881","from": "A775","rssi": -46, "batch":"A77515472375837408","current_packet": 65, "total": 100, "sent_time": 1547237584.437026, "received_time": 1547237584.444454, "type":"RX"}
{"to": "9881","from": "A775","rssi": -46, "batch":"A77515472375837408","current_packet": 66, "total": 100, "sent_time": 1547237584.447706, "received_time": 1547237584.455165, "type":"RX"}
{"to": "9881","from": "A775","rssi": -46, "batch":"A77515472375837408","current_packet": 67, "total": 100, "sent_time": 1547237584.458417, "received_time": 1547237584.465875, "type":"RX"}
{"to": "9881","from": "A775","rssi": -46, "batch":"A77515472375837408","current_packet": 68, "total": 100, "sent_time": 1547237584.469096, "received_time": 1547237584.476555, "type":"RX"}
{"to": "9881","from": "A775","rssi": -46, "batch":"A77515472375837408","current_packet": 69, "total": 100, "sent_time": 1547237584.479837, "received_time": 1547237584.487266, "type":"RX"}
{"to": "9881","from": "A775","rssi": -46, "batch":"A77515472375837408","current_packet": 70, "total": 100, "sent_time": 1547237584.490517, "received_time": 1547237584.498007, "type":"RX"}
{"to": "9881","from": "A775","rssi": -46, "batch":"A77515472375837408","current_packet": 71, "total": 100, "sent_time": 1547237584.501258, "received_time": 1547237584.508686, "type":"RX"}
{"to": "9881","from": "A775","rssi": -46, "batch":"A77515472375837408","current_packet": 72, "total": 100, "sent_time": 1547237584.511969, "received_time": 1547237584.519397, "type":"RX"}
{"to": "9881","from": "A775","rssi": -46, "batch":"A77515472375837408","current_packet": 73, "total": 100, "sent_time": 1547237584.522649, "received_time": 1547237584.530107, "type":"RX"}
{"to": "9881","from": "A775","rssi": -46, "batch":"A77515472375837408","current_packet": 74, "total": 100, "sent_time": 1547237584.533390, "received_time": 1547237584.540818, "type":"RX"}
{"to": "9881","from": "A775","rssi": -46, "batch":"A77515472375837408","current_packet": 75, "total": 100, "sent_time": 1547237584.544039, "received_time": 1547237584.551498, "type":"RX"}
{"to": "9881","from": "A775","rssi": -46, "batch":"A77515472375837408","current_packet": 76, "total": 100, "sent_time": 1547237584.554780, "received_time": 1547237584.562208, "type":"RX"}
{"to": "9881","from": "A775","rssi": -46, "batch":"A77515472375837408","current_packet": 77, "total": 100, "sent_time": 1547237584.565460, "received_time": 1547237584.572919, "type":"RX"}
{"to": "9881","from": "A775","rssi": -46, "batch":"A77515472375837408","current_packet": 78, "total": 100, "sent_time": 1547237584.576140, "received_time": 1547237584.583598, "type":"RX"}
{"to": "9881","from": "A775","rssi": -46, "batch":"A77515472375837408","current_packet": 79, "total": 100, "sent_time": 1547237584.586881, "received_time": 1547237584.594309, "type":"RX"}
{"to": "9881","from": "A775","rssi": -46, "batch":"A77515472375837408","current_packet": 80, "total": 100, "sent_time": 1547237584.597591, "received_time": 1547237584.605019, "type":"RX"}
{"to": "9881","from": "A775","rssi": -46, "batch":"A77515472375837408","current_packet": 81, "total": 100, "sent_time": 1547237584.608302, "received_time": 1547237584.615730, "type":"RX"}
{"to": "9881","from": "A775","rssi": -46, "batch":"A77515472375837408","current_packet": 82, "total": 100, "sent_time": 1547237584.618981, "received_time": 1547237584.626410, "type":"RX"}
{"to": "9881","from": "A775","rssi": -46, "batch":"A77515472375837408","current_packet": 83, "total": 100, "sent_time": 1547237584.629692, "received_time": 1547237584.637120, "type":"RX"}
{"to": "9881","from": "A775","rssi": -46, "batch":"A77515472375837408","current_packet": 84, "total": 100, "sent_time": 1547237584.640402, "received_time": 1547237584.647831, "type":"RX"}
{"to": "9881","from": "A775","rssi": -46, "batch":"A77515472375837408","current_packet": 85, "total": 100, "sent_time": 1547237584.651082, "received_time": 1547237584.658510, "type":"RX"}
{"to": "9881","from": "A775","rssi": -46, "batch":"A77515472375837408","current_packet": 86, "total": 100, "sent_time": 1547237584.661793, "received_time": 1547237584.669221, "type":"RX"}
{"to": "9881","from": "A775","rssi": -46, "batch":"A77515472375837408","current_packet": 87, "total": 100, "sent_time": 1547237584.672503, "received_time": 1547237584.679931, "type":"RX"}
{"to": "9881","from": "A775","rssi": -46, "batch":"A77515472375837408","current_packet": 88, "total": 100, "sent_time": 1547237584.683183, "received_time": 1547237584.690611, "type":"RX"}
{"to": "9881","from": "A775","rssi": -46, "batch":"A77515472375837408","current_packet": 89, "total": 100, "sent_time": 1547237584.693893, "received_time": 1547237584.701322, "type":"RX"}
{"to": "9881","from": "A775","rssi": -46, "batch":"A77515472375837408","current_packet": 90, "total": 100, "sent_time": 1547237584.704604, "received_time": 1547237584.712032, "type":"RX"}
{"to": "9881","from": "A775","rssi": -46, "batch":"A77515472375837408","current_packet": 91, "total": 100, "sent_time": 1547237584.715314, "received_time": 1547237584.722742, "type":"RX"}
{"to": "9881","from": "A775","rssi": -46, "batch":"A77515472375837408","current_packet": 92, "total": 100, "sent_time": 1547237584.726025, "received_time": 1547237584.733453, "type":"RX"}
{"to": "9881","from": "A775","rssi": -46, "batch":"A77515472375837408","current_packet": 93, "total": 100, "sent_time": 1547237584.736735, "received_time": 1547237584.744163, "type":"RX"}
{"to": "9881","from": "A775","rssi": -46, "batch":"A77515472375837408","current_packet": 94, "total": 100, "sent_time": 1547237584.747446, "received_time": 1547237584.754874, "type":"RX"}
{"to": "9881","from": "A775","rssi": -46, "batch":"A77515472375837408","current_packet": 95, "total": 100, "sent_time": 1547237584.758125, "received_time": 1547237584.765554, "type":"RX"}
{"to": "9881","from": "A775","rssi": -46, "batch":"A77515472375837408","current_packet": 96, "total": 100, "sent_time": 1547237584.768836, "received_time": 1547237584.776264, "type":"RX"}
{"to": "9881","from": "A775","rssi": -46, "batch":"A77515472375837408","current_packet": 97, "total": 100, "sent_time": 1547237584.779546, "received_time": 1547237584.787005, "type":"RX"}
{"to": "9881","from": "A775","rssi": -46, "batch":"A77515472375837408","current_packet": 98, "total": 100, "sent_time": 1547237584.790257, "received_time": 1547237584.797685, "type":"RX"}
{"to": "9881","from": "A775","rssi": -46, "batch":"A77515472375837408","current_packet": 99, "total": 100, "sent_time": 1547237584.800967, "received_time": 1547237584.808395, "type":"RX"}
{"to": "9881","from": "B576","rssi": -31, "batch":"B57615472375854762","current_packet": 0, "total": 100, "sent_time": 1547237585.476550, "received_time": 1547237585.484159, "type":"RX"}
{"to": "9881","from": "B576","rssi": -31, "batch":"B57615472375854762","current_packet": 1, "total": 100, "sent_time": 1547237585.487260, "received_time": 1547237585.494870, "type":"RX"}
{"to": "9881","from": "B576","rssi": -31, "batch":"B57615472375854762","current_packet": 2, "total": 100, "sent_time": 1547237585.497971, "received_time": 1547237585.505580, "type":"RX"}
{"to": "9881","from": "B576","rssi": -30, "batch":"B57615472375854762","current_packet": 3, "total": 100, "sent_time": 1547237585.508681, "received_time": 1547237585.516291, "type":"RX"}
{"to": "9881","from": "B576","rssi": -30, "batch":"B57615472375854762","current_packet": 4, "total": 100, "sent_time": 1547237585.519392, "received_time": 1547237585.527032, "type":"RX"}
{"to": "9881","from": "B576","rssi": -30, "batch":"B57615472375854762","current_packet": 5, "total": 100, "sent_time": 1547237585.530132, "received_time": 1547237585.537711, "type":"RX"}
{"to": "9881","from": "B576","rssi": -31, "batch":"B57615472375854762","current_packet": 6, "total": 100, "sent_time": 1547237585.540812, "received_time": 1547237585.548452, "type":"RX"}
{"to": "9881","from": "B576","rssi": -30, "batch":"B57615472375854762","current_packet": 7, "total": 100, "sent_time": 1547237585.551523, "received_time": 1547237585.559132, "type":"RX"}
{"to": "9881","from": "B576","rssi": -31, "batch":"B57615472375854762","current_packet": 8, "total": 100, "sent_time": 1547237585.562203, "received_time": 1547237585.569812, "type":"RX"}
{"to": "9881","from": "B576","rssi": -30, "batch":"B57615472375854762","current_packet": 9, "total": 100, "sent_time": 1547237585.572913, "received_time": 1547237585.580523, "type":"RX"}
{"to": "9881","from": "B576","rssi": -30, "batch":"B57615472375854762","current_packet": 10, "total": 100, "sent_time": 1547237585.583624, "received_time": 1547237585.591264, "type":"RX"}
{"to": "9881","from": "B576","rssi": -30, "batch":"B57615472375854762","current_packet": 11, "total": 100, "sent_time": 1547237585.594304, "received_time": 1547237585.601974, "type":"RX"}
{"to": "9881","from": "B576","rssi": -30, "batch":"B57615472375854762","current_packet": 12, "total": 100, "sent_time": 1547237585.605014, "received_time": 1547237585.612654, "type":"RX"}
{"to": "9881","from": "B576","rssi": -31, "batch":"B57615472375854762","current_packet": 13, "total": 100, "sent_time": 1547237585.615724, "received_time": 1547237585.623395, "type":"RX"}
{"to": "9881","from": "B576","rssi": -30, "batch":"B57615472375854762","current_packet": 14, "total": 100, "sent_time": 1547237585.626435, "received_time": 1547237585.634075, "type":"RX"}
{"to": "9881","from": "B576","rssi": -30, "batch":"B57615472375854762","current_packet": 15, "total": 100, "sent_time": 1547237585.637115, "received_time": 1547237585.644755, "type":"RX"}
{"to": "9881","from": "B576","rssi": -30, "batch":"B57615472375854762","current_packet": 16, "total": 100, "sent_time": 1547237585.647825, "received_time": 1547237585.655465, "type":"RX"}
{"to": "9881","from": "B576","rssi": -30, "batch":"B57615472375854762","current_packet": 17, "total": 100, "sent_time": 1547237585.658536, "received_time": 1547237585.666176, "type":"RX"}
{"to": "9881","from": "B576","rssi": -31, "batch":"B57615472375854762","current_packet": 18, "total": 100, "sent_time": 1547237585.669246, "received_time": 1547237585.676886, "type":"RX"}
{"to": "9881","from": "B576","rssi": -30, "batch":"B57615472375854762","current_packet": 19, "total": 100, "sent_time": 1547237585.679956, "received_time": 1547237585.687596, "type":"RX"}
{"to": "9881","from": "B576","rssi": -30, "batch":"B57615472375854762","current_packet": 20, "total": 100, "sent_time": 1547237585.690667, "received_time": 1547237585.698337, "type":"RX"}
{"to": "9881","from": "B576","rssi": -30, "batch":"B57615472375854762","current_packet": 21, "total": 100, "sent_time": 1547237585.701377, "received_time": 1547237585.709017, "type":"RX"}
{"to": "9881","from": "B576","rssi": -31, "batch":"B57615472375854762","current_packet": 22, "total": 100, "sent_time": 1547237585.712088, "received_time": 1547237585.719728, "type":"RX"}
{"to": "9881","from": "B576","rssi": -30, "batch":"B57615472375854762","current_packet": 23, "total": 100, "sent_time": 1547237585.722798, "received_time": 1547237585.730469, "type":"RX"}
{"to": "9881","from": "B576","rssi": -30, "batch":"B57615472375854762","current_packet": 24, "total": 100, "sent_time": 1547237585.733509, "received_time": 1547237585.741149, "type":"RX"}
{"to": "9881","from": "B576","rssi": -30, "batch":"B57615472375854762","current_packet": 25, "total": 100, "sent_time": 1547237585.744219, "received_time": 1547237585.751859, "type":"RX"}
{"to": "9881","from": "B576","rssi": -30, "batch":"B57615472375854762","current_packet": 26, "total": 100, "sent_time": 1547237585.754929, "received_time": 1547237585.762569, "type":"RX"}
{"to": "9881","from": "B576","rssi": -30, "batch":"B57615472375854762","current_packet": 27, "total": 100, "sent_time": 1547237585.765640, "received_time": 1547237585.773280, "type":"RX"}
{"to": "9881","from": "B576","rssi": -30, "batch":"B57615472375854762","current_packet": 28, "total": 100, "sent_time": 1547237585.776350, "received_time": 1547237585.784021, "type":"RX"}
{"to": "9881","from": "B576","rssi": -31, "batch":"B57615472375854762","current_packet": 29, "total": 100, "sent_time": 1547237585.787061, "received_time": 1547237585.794701, "type":"RX"}
{"to": "9881","from": "B576","rssi": -30, "batch":"B57615472375854762","current_packet": 30, "total": 100, "sent_time": 1547237585.797771, "received_time": 1547237585.805442, "type":"RX"}
{"to": "9881","from": "B576","rssi": -30, "batch":"B57615472375854762","current_packet": 31, "total": 100, "sent_time": 1547237585.808482, "received_time": 1547237585.816152, "type":"RX"}
{"to": "9881","from": "B576","rssi": -30, "batch":"B57615472375854762","current_packet": 32, "total": 100, "sent_time": 1547237585.819192, "received_time": 1547237585.826832, "type":"RX"}
{"to": "9881","from": "B576","rssi": -30, "batch":"B57615472375854762","current_packet": 33, "total": 100, "sent_time": 1547237585.829902, "received_time": 1547237585.837542, "type":"RX"}
{"to": "9881","from": "B576","rssi": -30, "batch":"B57615472375854762","current_packet": 34, "total": 100, "sent_time": 1547237585.840613, "received_time": 1547237585.848253, "type":"RX"}
{"to": "9881","from": "B576","rssi": -30, "batch":"B57615472375854762","current_packet": 35, "total": 100, "sent_time": 1547237585.851293, "received_time": 1547237585.858963, "type":"RX"}
{"to": "9881","from": "B576","rssi": -30, "batch":"B57615472375854762","current_packet": 36, "total": 100, "sent_time": 1547237585.862003, "received_time": 1547237585.869643, "type":"RX"}
{"to": "9881","from": "B576","rssi": -30, "batch":"B57615472375854762","current_packet": 37, "total": 100, "sent_time": 1547237585.872714, "received_time": 1547237585.880354, "type":"RX"}
{"to": "9881","from": "B576","rssi": -30, "batch":"B57615472375854762","current_packet": 38, "total": 100, "sent_time": 1547237585.883424, "received_time": 1547237585.891095, "type":"RX"}
{"to": "9881","from": "B576","rssi": -30, "batch":"B57615472375854762","current_packet": 39, "total": 100, "sent_time": 1547237585.894134, "received_time": 1547237585.901775, "type":"RX"}
{"to": "9881","from": "B576","rssi": -31, "batch":"B57615472375854762","current_packet": 40, "total": 100, "sent_time": 1547237585.904845, "received_time": 1547237585.912485, "type":"RX"}
{"to": "9881","from": "B576","rssi": -30, "batch":"B57615472375854762","current_packet": 41, "total": 100, "sent_time": 1547237585.915555, "received_time": 1547237585.923195, "type":"RX"}
{"to": "9881","from": "B576","rssi": -30, "batch":"B57615472375854762","current_packet": 42, "total": 100, "sent_time": 1547237585.926235, "received_time": 1547237585.933875, "type":"RX"}
{"to": "9881","from": "B576","rssi": -30, "batch":"B57615472375854762","current_packet": 43, "total": 100, "sent_time": 1547237585.936946, "received_time": 1547237585.944586, "type":"RX"}
{"to": "9881","from": "B576","rssi": -30, "batch":"B57615472375854762","current_packet": 44, "total": 100, "sent_time": 1547237585.947656, "received_time": 1547237585.955327, "type":"RX"}
ST Late 40 (now 00290102)
{"to": "9881","from": "B576","rssi": -30, "batch":"B57615472375854762","current_packet": 45, "total": 100, "sent_time": 1547237585.958367, "received_time": 1547237585.966007, "type":"RX"}
{"to": "9881","from": "B576","rssi": -30, "batch":"B57615472375854762","current_packet": 46, "total": 100, "sent_time": 1547237585.969077, "received_time": 1547237585.976717, "type":"RX"}
{"to": "9881","from": "B576","rssi": -30, "batch":"B57615472375854762","current_packet": 47, "total": 100, "sent_time": 1547237585.979787, "received_time": 1547237585.987458, "type":"RX"}
{"to": "9881","from": "B576","rssi": -30, "batch":"B57615472375854762","current_packet": 48, "total": 100, "sent_time": 1547237585.990498, "received_time": 1547237585.998168, "type":"RX"}
{"to": "9881","from": "B576","rssi": -30, "batch":"B57615472375854762","current_packet": 49, "total": 100, "sent_time": 1547237586.001208, "received_time": 1547237586.008848, "type":"RX"}
{"to": "9881","from": "B576","rssi": -30, "batch":"B57615472375854762","current_packet": 50, "total": 100, "sent_time": 1547237586.011919, "received_time": 1547237586.019559, "type":"RX"}
{"to": "9881","from": "B576","rssi": -30, "batch":"B57615472375854762","current_packet": 51, "total": 100, "sent_time": 1547237586.022629, "received_time": 1547237586.030269, "type":"RX"}
{"to": "9881","from": "B576","rssi": -30, "batch":"B57615472375854762","current_packet": 52, "total": 100, "sent_time": 1547237586.033309, "received_time": 1547237586.040980, "type":"RX"}
{"to": "9881","from": "B576","rssi": -31, "batch":"B57615472375854762","current_packet": 53, "total": 100, "sent_time": 1547237586.044019, "received_time": 1547237586.051659, "type":"RX"}
{"to": "9881","from": "B576","rssi": -30, "batch":"B57615472375854762","current_packet": 54, "total": 100, "sent_time": 1547237586.054730, "received_time": 1547237586.062400, "type":"RX"}
{"to": "9881","from": "B576","rssi": -30, "batch":"B57615472375854762","current_packet": 55, "total": 100, "sent_time": 1547237586.065440, "received_time": 1547237586.073080, "type":"RX"}
{"to": "9881","from": "B576","rssi": -30, "batch":"B57615472375854762","current_packet": 56, "total": 100, "sent_time": 1547237586.076151, "received_time": 1547237586.083791, "type":"RX"}
{"to": "9881","from": "B576","rssi": -30, "batch":"B57615472375854762","current_packet": 57, "total": 100, "sent_time": 1547237586.086861, "received_time": 1547237586.094501, "type":"RX"}
{"to": "9881","from": "B576","rssi": -30, "batch":"B57615472375854762","current_packet": 58, "total": 100, "sent_time": 1547237586.097572, "received_time": 1547237586.105212, "type":"RX"}
{"to": "9881","from": "B576","rssi": -30, "batch":"B57615472375854762","current_packet": 59, "total": 100, "sent_time": 1547237586.108252, "received_time": 1547237586.115892, "type":"RX"}
{"to": "9881","from": "B576","rssi": -30, "batch":"B57615472375854762","current_packet": 60, "total": 100, "sent_time": 1547237586.118962, "received_time": 1547237586.126602, "type":"RX"}
{"to": "9881","from": "B576","rssi": -31, "batch":"B57615472375854762","current_packet": 61, "total": 100, "sent_time": 1547237586.129672, "received_time": 1547237586.137343, "type":"RX"}
{"to": "9881","from": "B576","rssi": -30, "batch":"B57615472375854762","current_packet": 62, "total": 100, "sent_time": 1547237586.140383, "received_time": 1547237586.148023, "type":"RX"}
{"to": "9881","from": "B576","rssi": -30, "batch":"B57615472375854762","current_packet": 63, "total": 100, "sent_time": 1547237586.151093, "received_time": 1547237586.158733, "type":"RX"}
{"to": "9881","from": "B576","rssi": -31, "batch":"B57615472375854762","current_packet": 64, "total": 100, "sent_time": 1547237586.161804, "received_time": 1547237586.169474, "type":"RX"}
{"to": "9881","from": "B576","rssi": -31, "batch":"B57615472375854762","current_packet": 65, "total": 100, "sent_time": 1547237586.172514, "received_time": 1547237586.180154, "type":"RX"}
{"to": "9881","from": "B576","rssi": -30, "batch":"B57615472375854762","current_packet": 66, "total": 100, "sent_time": 1547237586.183194, "received_time": 1547237586.190834, "type":"RX"}
{"to": "9881","from": "B576","rssi": -30, "batch":"B57615472375854762","current_packet": 67, "total": 100, "sent_time": 1547237586.193904, "received_time": 1547237586.201544, "type":"RX"}
{"to": "9881","from": "B576","rssi": -30, "batch":"B57615472375854762","current_packet": 68, "total": 100, "sent_time": 1547237586.204615, "received_time": 1547237586.212255, "type":"RX"}
{"to": "9881","from": "B576","rssi": -30, "batch":"B57615472375854762","current_packet": 69, "total": 100, "sent_time": 1547237586.215295, "received_time": 1547237586.222965, "type":"RX"}
{"to": "9881","from": "B576","rssi": -30, "batch":"B57615472375854762","current_packet": 70, "total": 100, "sent_time": 1547237586.226005, "received_time": 1547237586.233645, "type":"RX"}
{"to": "9881","from": "B576","rssi": -30, "batch":"B57615472375854762","current_packet": 71, "total": 100, "sent_time": 1547237586.236716, "received_time": 1547237586.244386, "type":"RX"}
{"to": "9881","from": "B576","rssi": -30, "batch":"B57615472375854762","current_packet": 72, "total": 100, "sent_time": 1547237586.247426, "received_time": 1547237586.255097, "type":"RX"}
{"to": "9881","from": "B576","rssi": -30, "batch":"B57615472375854762","current_packet": 73, "total": 100, "sent_time": 1547237586.258136, "received_time": 1547237586.265777, "type":"RX"}
{"to": "9881","from": "B576","rssi": -30, "batch":"B57615472375854762","current_packet": 74, "total": 100, "sent_time": 1547237586.268847, "received_time": 1547237586.276487, "type":"RX"}
{"to": "9881","from": "B576","rssi": -30, "batch":"B57615472375854762","current_packet": 75, "total": 100, "sent_time": 1547237586.279557, "received_time": 1547237586.287197, "type":"RX"}
{"to": "9881","from": "B576","rssi": -30, "batch":"B57615472375854762","current_packet": 76, "total": 100, "sent_time": 1547237586.290237, "received_time": 1547237586.297877, "type":"RX"}
{"to": "9881","from": "B576","rssi": -30, "batch":"B57615472375854762","current_packet": 77, "total": 100, "sent_time": 1547237586.300948, "received_time": 1547237586.308588, "type":"RX"}
{"to": "9881","from": "B576","rssi": -30, "batch":"B57615472375854762","current_packet": 78, "total": 100, "sent_time": 1547237586.311658, "received_time": 1547237586.319329, "type":"RX"}
{"to": "9881","from": "B576","rssi": -30, "batch":"B57615472375854762","current_packet": 79, "total": 100, "sent_time": 1547237586.322369, "received_time": 1547237586.330039, "type":"RX"}
{"to": "9881","from": "B576","rssi": -30, "batch":"B57615472375854762","current_packet": 80, "total": 100, "sent_time": 1547237586.333079, "received_time": 1547237586.340750, "type":"RX"}
{"to": "9881","from": "B576","rssi": -30, "batch":"B57615472375854762","current_packet": 81, "total": 100, "sent_time": 1547237586.343789, "received_time": 1547237586.351460, "type":"RX"}
{"to": "9881","from": "B576","rssi": -30, "batch":"B57615472375854762","current_packet": 82, "total": 100, "sent_time": 1547237586.354500, "received_time": 1547237586.362170, "type":"RX"}
{"to": "9881","from": "B576","rssi": -30, "batch":"B57615472375854762","current_packet": 83, "total": 100, "sent_time": 1547237586.365210, "received_time": 1547237586.372850, "type":"RX"}
{"to": "9881","from": "B576","rssi": -31, "batch":"B57615472375854762","current_packet": 84, "total": 100, "sent_time": 1547237586.375921, "received_time": 1547237586.383561, "type":"RX"}
{"to": "9881","from": "B576","rssi": -30, "batch":"B57615472375854762","current_packet": 85, "total": 100, "sent_time": 1547237586.386631, "received_time": 1547237586.394271, "type":"RX"}
{"to": "9881","from": "B576","rssi": -31, "batch":"B57615472375854762","current_packet": 86, "total": 100, "sent_time": 1547237586.397342, "received_time": 1547237586.405012, "type":"RX"}
{"to": "9881","from": "B576","rssi": -30, "batch":"B57615472375854762","current_packet": 87, "total": 100, "sent_time": 1547237586.408052, "received_time": 1547237586.415723, "type":"RX"}
{"to": "9881","from": "B576","rssi": -30, "batch":"B57615472375854762","current_packet": 88, "total": 100, "sent_time": 1547237586.418762, "received_time": 1547237586.426433, "type":"RX"}
{"to": "9881","from": "B576","rssi": -30, "batch":"B57615472375854762","current_packet": 89, "total": 100, "sent_time": 1547237586.429473, "received_time": 1547237586.437143, "type":"RX"}
{"to": "9881","from": "B576","rssi": -31, "batch":"B57615472375854762","current_packet": 90, "total": 100, "sent_time": 1547237586.440183, "received_time": 1547237586.447823, "type":"RX"}
{"to": "9881","from": "B576","rssi": -30, "batch":"B57615472375854762","current_packet": 91, "total": 100, "sent_time": 1547237586.450894, "received_time": 1547237586.458534, "type":"RX"}
{"to": "9881","from": "B576","rssi": -30, "batch":"B57615472375854762","current_packet": 92, "total": 100, "sent_time": 1547237586.461604, "received_time": 1547237586.469244, "type":"RX"}
{"to": "9881","from": "B576","rssi": -31, "batch":"B57615472375854762","current_packet": 93, "total": 100, "sent_time": 1547237586.472284, "received_time": 1547237586.479955, "type":"RX"}
{"to": "9881","from": "B576","rssi": -30, "batch":"B57615472375854762","current_packet": 94, "total": 100, "sent_time": 1547237586.482994, "received_time": 1547237586.490634, "type":"RX"}
{"to": "9881","from": "B576","rssi": -30, "batch":"B57615472375854762","current_packet": 95, "total": 100, "sent_time": 1547237586.493705, "received_time": 1547237586.501375, "type":"RX"}
{"to": "9881","from": "B576","rssi": -30, "batch":"B57615472375854762","current_packet": 96, "total": 100, "sent_time": 1547237586.504415, "received_time": 1547237586.512086, "type":"RX"}
{"to": "9881","from": "B576","rssi": -30, "batch":"B57615472375854762","current_packet": 97, "total": 100, "sent_time": 1547237586.515126, "received_time": 1547237586.522766, "type":"RX"}
{"to": "9881","from": "B576","rssi": -31, "batch":"B57615472375854762","current_packet": 98, "total": 100, "sent_time": 1547237586.525836, "received_time": 1547237586.533476, "type":"RX"}
{"to": "9881","from": "B576","rssi": -30, "batch":"B57615472375854762","current_packet": 99, "total": 100, "sent_time": 1547237586.536547, "received_time": 1547237586.544187, "type":"RX"}
{"to": "9881","from": "9382","rssi": -45, "batch":"938215472375872202","current_packet": 0, "total": 100, "sent_time": 1547237587.220523, "received_time": 1547237587.228464, "type":"RX"}
{"to": "9881","from": "9382","rssi": -46, "batch":"938215472375872202","current_packet": 1, "total": 100, "sent_time": 1547237587.231234, "received_time": 1547237587.239174, "type":"RX"}
{"to": "9881","from": "9382","rssi": -45, "batch":"938215472375872202","current_packet": 2, "total": 100, "sent_time": 1547237587.241914, "received_time": 1547237587.249854, "type":"RX"}
{"to": "9881","from": "9382","rssi": -46, "batch":"938215472375872202","current_packet": 3, "total": 100, "sent_time": 1547237587.252624, "received_time": 1547237587.260565, "type":"RX"}
{"to": "9881","from": "9382","rssi": -45, "batch":"938215472375872202","current_packet": 4, "total": 100, "sent_time": 1547237587.263334, "received_time": 1547237587.271275, "type":"RX"}
{"to": "9881","from": "9382","rssi": -45, "batch":"938215472375872202","current_packet": 5, "total": 100, "sent_time": 1547237587.274045, "received_time": 1547237587.281986, "type":"RX"}
{"to": "9881","from": "9382","rssi": -45, "batch":"938215472375872202","current_packet": 6, "total": 100, "sent_time": 1547237587.284755, "received_time": 1547237587.292696, "type":"RX"}
{"to": "9881","from": "9382","rssi": -45, "batch":"938215472375872202","current_packet": 7, "total": 100, "sent_time": 1547237587.295466, "received_time": 1547237587.303407, "type":"RX"}
{"to": "9881","from": "9382","rssi": -46, "batch":"938215472375872202","current_packet": 8, "total": 100, "sent_time": 1547237587.306176, "received_time": 1547237587.314117, "type":"RX"}
{"to": "9881","from": "9382","rssi": -45, "batch":"938215472375872202","current_packet": 9, "total": 100, "sent_time": 1547237587.316856, "received_time": 1547237587.324797, "type":"RX"}
{"to": "9881","from": "9382","rssi": -45, "batch":"938215472375872202","current_packet": 10, "total": 100, "sent_time": 1547237587.327566, "received_time": 1547237587.335538, "type":"RX"}
{"to": "9881","from": "9382","rssi": -46, "batch":"938215472375872202","current_packet": 11, "total": 100, "sent_time": 1547237587.338277, "received_time": 1547237587.346248, "type":"RX"}
{"to": "9881","from": "9382","rssi": -45, "batch":"938215472375872202","current_packet": 12, "total": 100, "sent_time": 1547237587.348957, "received_time": 1547237587.356928, "type":"RX"}
{"to": "9881","from": "9382","rssi": -45, "batch":"938215472375872202","current_packet": 13, "total": 100, "sent_time": 1547237587.359667, "received_time": 1547237587.367639, "type":"RX"}
{"to": "9881","from": "9382","rssi": -45, "batch":"938215472375872202","current_packet": 14, "total": 100, "sent_time": 1547237587.370378, "received_time": 1547237587.378349, "type":"RX"}
{"to": "9881","from": "9382","rssi": -45, "batch":"938215472375872202","current_packet": 15, "total": 100, "sent_time": 1547237587.381088, "received_time": 1547237587.389059, "type":"RX"}
{"to": "9881","from": "9382","rssi": -45, "batch":"938215472375872202","current_packet": 16, "total": 100, "sent_time": 1547237587.391768, "received_time": 1547237587.399739, "type":"RX"}
{"to": "9881","from": "9382","rssi": -45, "batch":"938215472375872202","current_packet": 17, "total": 100, "sent_time": 1547237587.402478, "received_time": 1547237587.410480, "type":"RX"}
{"to": "9881","from": "9382","rssi": -46, "batch":"938215472375872202","current_packet": 18, "total": 100, "sent_time": 1547237587.413189, "received_time": 1547237587.421160, "type":"RX"}
{"to": "9881","from": "9382","rssi": -45, "batch":"938215472375872202","current_packet": 19, "total": 100, "sent_time": 1547237587.423869, "received_time": 1547237587.431840, "type":"RX"}
{"to": "9881","from": "9382","rssi": -45, "batch":"938215472375872202","current_packet": 20, "total": 100, "sent_time": 1547237587.434579, "received_time": 1547237587.442551, "type":"RX"}
{"to": "9881","from": "9382","rssi": -46, "batch":"938215472375872202","current_packet": 21, "total": 100, "sent_time": 1547237587.445290, "received_time": 1547237587.453261, "type":"RX"}
{"to": "9881","from": "9382","rssi": -46, "batch":"938215472375872202","current_packet": 22, "total": 100, "sent_time": 1547237587.456000, "received_time": 1547237587.463971, "type":"RX"}
{"to": "9881","from": "9382","rssi": -45, "batch":"938215472375872202","current_packet": 23, "total": 100, "sent_time": 1547237587.466710, "received_time": 1547237587.474682, "type":"RX"}
{"to": "9881","from": "9382","rssi": -46, "batch":"938215472375872202","current_packet": 24, "total": 100, "sent_time": 1547237587.477421, "received_time": 1547237587.485423, "type":"RX"}
{"to": "9881","from": "9382","rssi": -46, "batch":"938215472375872202","current_packet": 25, "total": 100, "sent_time": 1547237587.488131, "received_time": 1547237587.496103, "type":"RX"}
{"to": "9881","from": "9382","rssi": -46, "batch":"938215472375872202","current_packet": 26, "total": 100, "sent_time": 1547237587.498842, "received_time": 1547237587.506813, "type":"RX"}
{"to": "9881","from": "9382","rssi": -45, "batch":"938215472375872202","current_packet": 27, "total": 100, "sent_time": 1547237587.509552, "received_time": 1547237587.517524, "type":"RX"}
{"to": "9881","from": "9382","rssi": -46, "batch":"938215472375872202","current_packet": 28, "total": 100, "sent_time": 1547237587.520263, "received_time": 1547237587.528234, "type":"RX"}
{"to": "9881","from": "9382","rssi": -46, "batch":"938215472375872202","current_packet": 29, "total": 100, "sent_time": 1547237587.530943, "received_time": 1547237587.538914, "type":"RX"}
{"to": "9881","from": "9382","rssi": -45, "batch":"938215472375872202","current_packet": 30, "total": 100, "sent_time": 1547237587.541653, "received_time": 1547237587.549624, "type":"RX"}
{"to": "9881","from": "9382","rssi": -45, "batch":"938215472375872202","current_packet": 31, "total": 100, "sent_time": 1547237587.552363, "received_time": 1547237587.560335, "type":"RX"}
{"to": "9881","from": "9382","rssi": -45, "batch":"938215472375872202","current_packet": 32, "total": 100, "sent_time": 1547237587.563074, "received_time": 1547237587.571045, "type":"RX"}
{"to": "9881","from": "9382","rssi": -46, "batch":"938215472375872202","current_packet": 33, "total": 100, "sent_time": 1547237587.573784, "received_time": 1547237587.581756, "type":"RX"}
{"to": "9881","from": "9382","rssi": -45, "batch":"938215472375872202","current_packet": 34, "total": 100, "sent_time": 1547237587.584495, "received_time": 1547237587.592466, "type":"RX"}
{"to": "9881","from": "9382","rssi": -46, "batch":"938215472375872202","current_packet": 35, "total": 100, "sent_time": 1547237587.595205, "received_time": 1547237587.603176, "type":"RX"}
{"to": "9881","from": "9382","rssi": -46, "batch":"938215472375872202","current_packet": 36, "total": 100, "sent_time": 1547237587.605885, "received_time": 1547237587.613856, "type":"RX"}
{"to": "9881","from": "9382","rssi": -46, "batch":"938215472375872202","current_packet": 37, "total": 100, "sent_time": 1547237587.616595, "received_time": 1547237587.624567, "type":"RX"}
{"to": "9881","from": "9382","rssi": -46, "batch":"938215472375872202","current_packet": 38, "total": 100, "sent_time": 1547237587.627306, "received_time": 1547237587.635277, "type":"RX"}
{"to": "9881","from": "9382","rssi": -46, "batch":"938215472375872202","current_packet": 39, "total": 100, "sent_time": 1547237587.638016, "received_time": 1547237587.645988, "type":"RX"}
{"to": "9881","from": "9382","rssi": -45, "batch":"938215472375872202","current_packet": 40, "total": 100, "sent_time": 1547237587.648727, "received_time": 1547237587.656698, "type":"RX"}
{"to": "9881","from": "9382","rssi": -46, "batch":"938215472375872202","current_packet": 41, "total": 100, "sent_time": 1547237587.659437, "received_time": 1547237587.667439, "type":"RX"}
{"to": "9881","from": "9382","rssi": -45, "batch":"938215472375872202","current_packet": 42, "total": 100, "sent_time": 1547237587.670148, "received_time": 1547237587.678119, "type":"RX"}
{"to": "9881","from": "9382","rssi": -45, "batch":"938215472375872202","current_packet": 43, "total": 100, "sent_time": 1547237587.680858, "received_time": 1547237587.688829, "type":"RX"}
{"to": "9881","from": "9382","rssi": -46, "batch":"938215472375872202","current_packet": 44, "total": 100, "sent_time": 1547237587.691568, "received_time": 1547237587.699540, "type":"RX"}
{"to": "9881","from": "9382","rssi": -45, "batch":"938215472375872202","current_packet": 45, "total": 100, "sent_time": 1547237587.702279, "received_time": 1547237587.710250, "type":"RX"}
{"to": "9881","from": "9382","rssi": -46, "batch":"938215472375872202","current_packet": 46, "total": 100, "sent_time": 1547237587.712959, "received_time": 1547237587.720930, "type":"RX"}
{"to": "9881","from": "9382","rssi": -45, "batch":"938215472375872202","current_packet": 47, "total": 100, "sent_time": 1547237587.723669, "received_time": 1547237587.731641, "type":"RX"}
{"to": "9881","from": "9382","rssi": -45, "batch":"938215472375872202","current_packet": 48, "total": 100, "sent_time": 1547237587.734380, "received_time": 1547237587.742351, "type":"RX"}
{"to": "9881","from": "9382","rssi": -46, "batch":"938215472375872202","current_packet": 49, "total": 100, "sent_time": 1547237587.745090, "received_time": 1547237587.753061, "type":"RX"}
{"to": "9881","from": "9382","rssi": -45, "batch":"938215472375872202","current_packet": 50, "total": 100, "sent_time": 1547237587.755770, "received_time": 1547237587.763741, "type":"RX"}
{"to": "9881","from": "9382","rssi": -45, "batch":"938215472375872202","current_packet": 51, "total": 100, "sent_time": 1547237587.766480, "received_time": 1547237587.774452, "type":"RX"}
{"to": "9881","from": "9382","rssi": -45, "batch":"938215472375872202","current_packet": 52, "total": 100, "sent_time": 1547237587.777191, "received_time": 1547237587.785162, "type":"RX"}
{"to": "9881","from": "9382","rssi": -45, "batch":"938215472375872202","current_packet": 53, "total": 100, "sent_time": 1547237587.787871, "received_time": 1547237587.795842, "type":"RX"}
{"to": "9881","from": "9382","rssi": -46, "batch":"938215472375872202","current_packet": 54, "total": 100, "sent_time": 1547237587.798581, "received_time": 1547237587.806553, "type":"RX"}
{"to": "9881","from": "9382","rssi": -45, "batch":"938215472375872202","current_packet": 55, "total": 100, "sent_time": 1547237587.809292, "received_time": 1547237587.817263, "type":"RX"}
{"to": "9881","from": "9382","rssi": -46, "batch":"938215472375872202","current_packet": 56, "total": 100, "sent_time": 1547237587.820002, "received_time": 1547237587.827973, "type":"RX"}
{"to": "9881","from": "9382","rssi": -46, "batch":"938215472375872202","current_packet": 57, "total": 100, "sent_time": 1547237587.830712, "received_time": 1547237587.838684, "type":"RX"}
{"to": "9881","from": "9382","rssi": -45, "batch":"938215472375872202","current_packet": 58, "total": 100, "sent_time": 1547237587.841423, "received_time": 1547237587.849394, "type":"RX"}
{"to": "9881","from": "9382","rssi": -45, "batch":"938215472375872202","current_packet": 59, "total": 100, "sent_time": 1547237587.852133, "received_time": 1547237587.860105, "type":"RX"}
{"to": "9881","from": "9382","rssi": -45, "batch":"938215472375872202","current_packet": 60, "total": 100, "sent_time": 1547237587.862844, "received_time": 1547237587.870815, "type":"RX"}
{"to": "9881","from": "9382","rssi": -45, "batch":"938215472375872202","current_packet": 61, "total": 100, "sent_time": 1547237587.873554, "received_time": 1547237587.881526, "type":"RX"}
{"to": "9881","from": "9382","rssi": -46, "batch":"938215472375872202","current_packet": 62, "total": 100, "sent_time": 1547237587.884265, "received_time": 1547237587.892236, "type":"RX"}
{"to": "9881","from": "9382","rssi": -45, "batch":"938215472375872202","current_packet": 63, "total": 100, "sent_time": 1547237587.894945, "received_time": 1547237587.902916, "type":"RX"}
{"to": "9881","from": "9382","rssi": -46, "batch":"938215472375872202","current_packet": 64, "total": 100, "sent_time": 1547237587.905655, "received_time": 1547237587.913626, "type":"RX"}
{"to": "9881","from": "9382","rssi": -45, "batch":"938215472375872202","current_packet": 65, "total": 100, "sent_time": 1547237587.916365, "received_time": 1547237587.924337, "type":"RX"}
{"to": "9881","from": "9382","rssi": -45, "batch":"938215472375872202","current_packet": 66, "total": 100, "sent_time": 1547237587.927076, "received_time": 1547237587.935047, "type":"RX"}
{"to": "9881","from": "9382","rssi": -45, "batch":"938215472375872202","current_packet": 67, "total": 100, "sent_time": 1547237587.937786, "received_time": 1547237587.945758, "type":"RX"}
{"to": "9881","from": "9382","rssi": -45, "batch":"938215472375872202","current_packet": 68, "total": 100, "sent_time": 1547237587.948497, "received_time": 1547237587.956468, "type":"RX"}
ST Late 85 (now 002A012F)
{"to": "9881","from": "9382","rssi": -45, "batch":"938215472375872202","current_packet": 69, "total": 100, "sent_time": 1547237587.959207, "received_time": 1547237587.967178, "type":"RX"}
{"to": "9881","from": "9382","rssi": -45, "batch":"938215472375872202","current_packet": 70, "total": 100, "sent_time": 1547237587.969887, "received_time": 1547237587.977858, "type":"RX"}
{"to": "9881","from": "9382","rssi": -45, "batch":"938215472375872202","current_packet": 71, "total": 100, "sent_time": 1547237587.980597, "received_time": 1547237587.988569, "type":"RX"}
{"to": "9881","from": "9382","rssi": -46, "batch":"938215472375872202","current_packet": 72, "total": 100, "sent_time": 1547237587.991308, "received_time": 1547237587.999279, "type":"RX"}
{"to": "9881","from": "9382","rssi": -46, "batch":"938215472375872202","current_packet": 73, "total": 100, "sent_time": 1547237588.002018, "received_time": 1547237588.009990, "type":"RX"}
{"to": "9881","from": "9382","rssi": -45, "batch":"938215472375872202","current_packet": 74, "total": 100, "sent_time": 1547237588.012729, "received_time": 1547237588.020700, "type":"RX"}
{"to": "9881","from": "9382","rssi": -45, "batch":"938215472375872202","current_packet": 75, "total": 100, "sent_time": 1547237588.023439, "received_time": 1547237588.031411, "type":"RX"}
{"to": "9881","from": "9382","rssi": -45, "batch":"938215472375872202","current_packet": 76, "total": 100, "sent_time": 1547237588.034150, "received_time": 1547237588.042121, "type":"RX"}
{"to": "9881","from": "9382","rssi": -46, "batch":"938215472375872202","current_packet": 77, "total": 100, "sent_time": 1547237588.044860, "received_time": 1547237588.052831, "type":"RX"}
{"to": "9881","from": "9382","rssi": -46, "batch":"938215472375872202","current_packet": 78, "total": 100, "sent_time": 1547237588.055570, "received_time": 1547237588.063542, "type":"RX"}
{"to": "9881","from": "9382","rssi": -45, "batch":"938215472375872202","current_packet": 79, "total": 100, "sent_time": 1547237588.066281, "received_time": 1547237588.074252, "type":"RX"}
{"to": "9881","from": "9382","rssi": -46, "batch":"938215472375872202","current_packet": 80, "total": 100, "sent_time": 1547237588.076961, "received_time": 1547237588.084932, "type":"RX"}
{"to": "9881","from": "9382","rssi": -45, "batch":"938215472375872202","current_packet": 81, "total": 100, "sent_time": 1547237588.087671, "received_time": 1547237588.095643, "type":"RX"}
{"to": "9881","from": "9382","rssi": -45, "batch":"938215472375872202","current_packet": 82, "total": 100, "sent_time": 1547237588.098382, "received_time": 1547237588.106353, "type":"RX"}
{"to": "9881","from": "9382","rssi": -46, "batch":"938215472375872202","current_packet": 83, "total": 100, "sent_time": 1547237588.109092, "received_time": 1547237588.117063, "type":"RX"}
{"to": "9881","from": "9382","rssi": -45, "batch":"938215472375872202","current_packet": 84, "total": 100, "sent_time": 1547237588.119772, "received_time": 1547237588.127743, "type":"RX"}
{"to": "9881","from": "9382","rssi": -46, "batch":"938215472375872202","current_packet": 85, "total": 100, "sent_time": 1547237588.130482, "received_time": 1547237588.138454, "type":"RX"}
{"to": "9881","from": "9382","rssi": -46, "batch":"938215472375872202","current_packet": 86, "total": 100, "sent_time": 1547237588.141193, "received_time": 1547237588.149164, "type":"RX"}
{"to": "9881","from": "9382","rssi": -45, "batch":"938215472375872202","current_packet": 87, "total": 100, "sent_time": 1547237588.151873, "received_time": 1547237588.159844, "type":"RX"}
{"to": "9881","from": "9382","rssi": -45, "batch":"938215472375872202","current_packet": 88, "total": 100, "sent_time": 1547237588.162583, "received_time": 1547237588.170555, "type":"RX"}
{"to": "9881","from": "9382","rssi": -45, "batch":"938215472375872202","current_packet": 89, "total": 100, "sent_time": 1547237588.173294, "received_time": 1547237588.181265, "type":"RX"}
{"to": "9881","from": "9382","rssi": -46, "batch":"938215472375872202","current_packet": 90, "total": 100, "sent_time": 1547237588.184004, "received_time": 1547237588.191975, "type":"RX"}
{"to": "9881","from": "9382","rssi": -45, "batch":"938215472375872202","current_packet": 91, "total": 100, "sent_time": 1547237588.194714, "received_time": 1547237588.202686, "type":"RX"}
{"to": "9881","from": "9382","rssi": -46, "batch":"938215472375872202","current_packet": 92, "total": 100, "sent_time": 1547237588.205425, "received_time": 1547237588.213396, "type":"RX"}
{"to": "9881","from": "9382","rssi": -45, "batch":"938215472375872202","current_packet": 93, "total": 100, "sent_time": 1547237588.216135, "received_time": 1547237588.224107, "type":"RX"}
{"to": "9881","from": "9382","rssi": -45, "batch":"938215472375872202","current_packet": 94, "total": 100, "sent_time": 1547237588.226846, "received_time": 1547237588.234817, "type":"RX"}
{"to": "9881","from": "9382","rssi": -46, "batch":"938215472375872202","current_packet": 95, "total": 100, "sent_time": 1547237588.237556, "received_time": 1547237588.245528, "type":"RX"}
{"to": "9881","from": "9382","rssi": -45, "batch":"938215472375872202","current_packet": 96, "total": 100, "sent_time": 1547237588.248267, "received_time": 1547237588.256238, "type":"RX"}
{"to": "9881","from": "9382","rssi": -45, "batch":"938215472375872202","current_packet": 97, "total": 100, "sent_time": 1547237588.258947, "received_time": 1547237588.266918, "type":"RX"}
{"to": "9881","from": "9382","rssi": -46, "batch":"938215472375872202","current_packet": 98, "total": 100, "sent_time": 1547237588.269657, "received_time": 1547237588.277628, "type":"RX"}
{"to": "9881","from": "9382","rssi": -46, "batch":"938215472375872202","current_packet": 99, "total": 100, "sent_time": 1547237588.280367, "received_time": 1547237588.288339, "type":"RX"}
